sid,search,"splunk_server","_time","is_realtime",provenance,"event_count","exec_time","result_count","scan_count",status,"total_run_time","__mv_sid","__mv_search","__mv_splunk_server","__mv__time","__mv_is_realtime","__mv_provenance","__mv_event_count","__mv_exec_time","__mv_result_count","__mv_scan_count","__mv_status","__mv_total_run_time"
"rt_md_1562679923.19","| metadata type=sourcetypes | search totalCount > 0",af1446b0fc60,"1562679923.862341",1,"UI:Search",0,1562679923,0,0,canceled,"23.072",,,,,,,,,,,,
"1580317271.17","| eventcount summarize=false index=* | dedup index | rename index as name | fields name",af1446b0fc60,"1580317271.923661",0,,0,1580317272,4,0,completed,"0.084",,,,,,,,,,,,
"1580318827.59","| eventcount summarize=false index=* | dedup index | rename index as name | fields name",af1446b0fc60,"1580318827.075315",0,,0,1580318827,4,0,completed,"0.081",,,,,,,,,,,,
"1580318844.60","| eventcount summarize=false index=* | dedup index | rename index as name | fields name",af1446b0fc60,"1580318844.919417",0,,0,1580318845,4,0,completed,"0.05",,,,,,,,,,,,
"rt_md_1580319030.64","| metadata type=sourcetypes | search totalCount > 0",af1446b0fc60,"1580319030.437402",1,"UI:Search",0,1580319030,0,0,failed,"32.083",,,,,,,,,,,,
